%YAML 1.1
%TAG !u! tag:unity3d.com,2011:
--- !u!114 &11400000
MonoBehaviour:
  m_ObjectHideFlags: 0
  m_PrefabParentObject: {fileID: 0}
  m_PrefabInternal: {fileID: 0}
  m_GameObject: {fileID: 0}
  m_Enabled: 1
  m_EditorHideFlags: 0
  m_Script: {fileID: 11500000, guid: a2759ac24f80164438cf5043dfcca963, type: 3}
  m_Name: BlueRifel
  m_EditorClassIdentifier: 
  team: blue
  max_health: 100
  range: 3
  attackType: 0
