%YAML 1.1
%TAG !u! tag:unity3d.com,2011:
--- !u!1045 &1
EditorBuildSettings:
  m_ObjectHideFlags: 0
  serializedVersion: 2
  m_Scenes:
  - enabled: 1
    path: Assets/scene/ui menu.unity
    guid: 5167499b0e898ad4fbff56df528fc9bf
  - enabled: 1
    path: Assets/Jessey.unity
    guid: f306424930b0fca4cac68a3439aff62e
